0,0.04071592912077904
1,0.020905211567878723
2,0.017714280635118484
3,0.015517889522016048
4,0.014124271459877491
5,0.013114717788994312
6,0.01218548882752657
7,0.011338716372847557
8,0.010718618519604206
9,0.010417644865810871
10,0.010001618415117264
11,0.00967964343726635
12,0.009380897507071495
13,0.008976079523563385
14,0.008643069304525852
15,0.008476374670863152
16,0.008353795856237411
17,0.008164303377270699
18,0.00795021839439869
19,0.007761500775814056
20,0.007615600246936083
21,0.007470637559890747
22,0.00738379405811429
23,0.007097200024873018
24,0.006995017174631357
25,0.007020548917353153
26,0.0069322348572313786
27,0.00698340917006135
28,0.0066878111101686954
29,0.006540581583976746
30,0.006532914936542511
31,0.006370646879076958
32,0.006364911794662476
33,0.006226568482816219
34,0.006245892960578203
35,0.006635773926973343
36,0.0061487420462071896
37,0.006038298364728689
38,0.005932288710027933
39,0.006113298237323761
40,0.0060768043622374535
41,0.005855320021510124
42,0.005774022080004215
43,0.005847607273608446
44,0.005536895710974932
45,0.005522300489246845
46,0.005659064278006554
47,0.00555495684966445
48,0.005646397825330496
49,0.005529176909476519
50,0.005380706861615181
51,0.005381432827562094
52,0.005390733014792204
53,0.005301420111209154
54,0.005484053399413824
55,0.005411903839558363
56,0.005289526656270027
57,0.005334499292075634
58,0.005336717236787081
59,0.005179024301469326
60,0.0050633312202990055
61,0.0049721733666956425
62,0.005206625908613205
63,0.0050569865852594376
64,0.004936679732054472
65,0.0049990881234407425
66,0.00501549756154418
67,0.004859895911067724
68,0.004783994052559137
69,0.004940864630043507
70,0.004868829157203436
71,0.004842161666601896
72,0.004922525025904179
73,0.004733703099191189
74,0.004701364319771528
75,0.0047168126329779625
76,0.004758983384817839
77,0.004851846490055323
78,0.0047925915569067
79,0.0049348012544214725
80,0.004694047383964062
81,0.004620039369910955
82,0.004702200181782246
83,0.004725363105535507
84,0.004599433392286301
85,0.004677743650972843
86,0.004508321173489094
87,0.004633328877389431
88,0.004543397109955549
89,0.0044038868509233
90,0.004394708666950464
91,0.004533849656581879
92,0.004399564582854509
93,0.004519532434642315
94,0.0048318346962332726
95,0.004802560433745384
96,0.004359056707471609
97,0.004409795626997948
98,0.0044265007600188255
99,0.004339889623224735